ST 558 HW 4 - Ben’s version
…
    flatten

# parse the url to find the content section
parsed <- fromJSON(rawToChar(API_data$content))
names(parsed)

[1] "status"       "totalResults" "articles"    

#make it a tibble
articles <- parsed$articles |>
            as_tibble()
articles

# A tibble: 99 × 8
   source$id $name author title description url   urlToImage publishedAt content
   <chr>     <chr> <chr>  <chr> <chr>       <chr> <chr>      <chr>       <chr>  
 1 the-verge The … Jenni… Appl… Apple and … http… https://p… 2026-06-10… "<ul><…
 2 the-verge The … Sheen… The … Apple’s up… http… https://p… 2026-06-10… "<ul><…
 3 the-verge The … Terre… Deez… Deezer wil… http… https://p… 2026-06-10… "<ul><…
 4 the-verge The … Jay P… Appl… Apple's ne… http… https://p… 2026-06-10… "<ul><…
 5 the-verge The … Andre… Boox… Following … http… https://p… 2026-06-10… "<ul><…
 6 <NA>      Gizm… Kyle … The … The macOS … http… https://g… 2026-06-10… "If yo…
 7 <NA>      Gizm… Chery… Doom… The island… http… https://g… 2026-06-10… "Were …
 8 <NA>      Gizm… Germa… ‘Pro… Ryan Gosli… http… https://g… 2026-06-10… "A mon…
 9 <NA>      Andr… brady… Why … You don't … http… https://c… 2026-06-10… "I hav…
10 <NA>      Andr… chris… Sams… The Samsun… http… https://c… 2026-06-10… "If yo…
# ℹ 89 more rows
…
  # make it a tibble
  articles <- parsed$articles |>
    as_tibble()

  return(articles)
}

Let’s test our function

# 1. Given example
news_search("Iran", 2026-05-02, "0009f78a3db94bc0b36a3a84d1cef3a7")

# A tibble: 49 × 8
   source$id $name author title description url   urlToImage publishedAt content
   <chr>     <chr> <chr>  <chr> <chr>       <chr> <chr>      <chr>       <chr>  
 1 <NA>      BBC … <NA>   Iran… "Iran laun… http… https://i… 2026-06-08… "At le…
 2 wired     Wired Katie… The … "Jason Rez… http… https://m… 2026-05-26… "What …
 3 <NA>      BBC … <NA>   Gree… "The Metro… http… https://i… 2026-05-29… "\"We …
 4 <NA>      BBC … <NA>   Bowe… "Under pre… http… https://i… 2026-06-01… "It ha…
 5 <NA>      BBC … <NA>   Sail… "The uncer… http… https://i… 2026-06-02… "Among…
 6 <NA>      BBC … <NA>   Iran… "Iran said… http… https://i… 2026-06-08… "Iran …
 7 <NA>      BBC … <NA>   US l… "US Centra… http… https://i… 2026-06-10… "The i…
 8 <NA>      BBC … <NA>   Trum… "The reque… http… https://i… 2026-05-31… "The l…
 9 <NA>      BBC … <NA>   Iran… "Earlier I… http… https://i… 2026-06-01… "The I…
10 <NA>      BBC … <NA>   Son … "Craig and… http… https://i… 2026-06-07… "On hi…
# ℹ 39 more rows

# 2. Top business headlines
news_search("business", 2026-06-11, "0009f78a3db94bc0b36a3a84d1cef3a7")

# A tibble: 37 × 8
   source$id $name author title description url   urlToImage publishedAt content
   <chr>     <chr> <chr>  <chr> <chr>       <chr> <chr>      <chr>       <chr>  
 1 the-verge The … Tom W… Xbox… "The RAMag… http… https://p… 2026-06-10… "<ul><…
 2 wired     Wired Jorda… What… "Discover … http… https://m… 2026-05-21… "Photo…
 3 <NA>      BBC … <NA>   Faci… "In conver… http… https://i… 2026-06-11… "In so…
 4 <NA>      Gizm… Bruce… Andr… "The forme… http… https://g… 2026-06-02… "So, w…
 5 the-verge The … Andre… Phil… "Its name … http… https://p… 2026-05-21… "<ul><…
 6 the-verge The … Tom W… Micr… "Yusuf Meh… http… https://p… 2026-05-22… "<ul><…
 7 the-verge The … Andre… Volv… "Volvo onc… http… https://p… 2026-05-20… "<ul><…
 8 the-verge The … Stevi… Hond… "Honda rev… http… https://p… 2026-05-14… "<ul><…
 9 the-verge The … Janko… Is A… "This is L… http… https://p… 2026-06-11… "<ul><…
10 business… Busi… Alexa… My f… "My dad in… http… https://i… 2026-06-06… "The a…
# ℹ 27 more rows
…
