ST 558 HW 4 - Chris’s version
…
We’ve got the data, but most of this looks like metadata we aren’t interested in. The articles are stored in the content object. We need to parse the raw data using the jsonlite package:

suppressPackageStartupMessages(library(tidyverse))

parsed <- fromJSON(rawToChar(news_return$content))
articles <- parsed$articles |>
            as_tibble()

articles

# A tibble: 49 × 8
   source$id $name author title description url   urlToImage publishedAt content
   <chr>     <chr> <chr>  <chr> <chr>       <chr> <chr>      <chr>       <chr>  
 1 <NA>      BBC … <NA>   Iran… "Iran laun… http… https://i… 2026-06-08… "At le…
 2 wired     Wired Katie… The … "Jason Rez… http… https://m… 2026-05-26… "What …
 3 <NA>      BBC … <NA>   Gree… "The Metro… http… https://i… 2026-05-29… "\"We …
 4 <NA>      BBC … <NA>   Bowe… "Under pre… http… https://i… 2026-06-01… "It ha…
 5 <NA>      BBC … <NA>   Sail… "The uncer… http… https://i… 2026-06-02… "Among…
 6 <NA>      BBC … <NA>   Iran… "Iran said… http… https://i… 2026-06-08… "Iran …
 7 <NA>      BBC … <NA>   US l… "US Centra… http… https://i… 2026-06-10… "The i…
 8 <NA>      BBC … <NA>   Trum… "The reque… http… https://i… 2026-05-31… "The l…
 9 <NA>      BBC … <NA>   Iran… "Earlier I… http… https://i… 2026-06-01… "The I…
10 <NA>      BBC … <NA>   Son … "Craig and… http… https://i… 2026-06-07… "On hi…
# ℹ 39 more rows
…
  # parse return and output as tibble
  parsed <- fromJSON(rawToChar(api_return$content))
  articles <- parsed$articles |>
              as_tibble()
  return(articles)
}

# 1) original API call
query_news("Iran", 2026-05-11, "d41f8e9cca0f4687b4865289b712e088")

# A tibble: 49 × 8
   source$id $name author title description url   urlToImage publishedAt content
   <chr>     <chr> <chr>  <chr> <chr>       <chr> <chr>      <chr>       <chr>  
 1 <NA>      BBC … <NA>   Iran… "Iran laun… http… https://i… 2026-06-08… "At le…
 2 wired     Wired Katie… The … "Jason Rez… http… https://m… 2026-05-26… "What …
 3 <NA>      BBC … <NA>   Gree… "The Metro… http… https://i… 2026-05-29… "\"We …
 4 <NA>      BBC … <NA>   Bowe… "Under pre… http… https://i… 2026-06-01… "It ha…
 5 <NA>      BBC … <NA>   Sail… "The uncer… http… https://i… 2026-06-02… "Among…
 6 <NA>      BBC … <NA>   Iran… "Iran said… http… https://i… 2026-06-08… "Iran …
 7 <NA>      BBC … <NA>   US l… "US Centra… http… https://i… 2026-06-10… "The i…
 8 <NA>      BBC … <NA>   Trum… "The reque… http… https://i… 2026-05-31… "The l…
 9 <NA>      BBC … <NA>   Iran… "Earlier I… http… https://i… 2026-06-01… "The I…
10 <NA>      BBC … <NA>   Son … "Craig and… http… https://i… 2026-06-07… "On hi…
# ℹ 39 more rows
…
The number of inversions and the inversions. variable need to be renamed

Adding to our pipeline:

rcs <- rcs_raw |>
       select(-c(Boundary, Latitude, Longitude)) |>
       rename(Inversions =`Inversions.`,
              Num.Inversions= `X..of.Inversions`) |>
       mutate(across(c(Census.Region, AgeGroup, Scale, Type, Design, Inversions),
                          ~ as.factor(.))) |>
       as_tibble()

rcs

# A tibble: 635 × 18
   Coaster         Park  City  State Census.Region Year.Opened AgeGroup TopSpeed
   <chr>           <chr> <chr> <chr> <fct>               <int> <fct>       <dbl>
 1 Adrenaline Peak Oaks… Port… Oreg… West                 2018 3:Newest     45  
 2 Adventure Expr… King… Mason Ohio  Midwest              1991 2:Recent     35  
 3 Afterburn       Caro… Char… Nort… South                1999 2:Recent     62  
 4 Aftershock      Silv… Athol Idaho West                 2008 3:Newest     65.6
 5 Air Grover      Busc… Tampa Flor… South                2010 3:Newest     22  
 6 Alpengeist      Busc… Will… Virg… South                1997 2:Recent     67  
 7 Alpine Bobsled  Grea… Quee… New … Northeast            1998 2:Recent     35  
 8 American Eagle  Six … Gurn… Illi… Midwest              1981 2:Recent     66  
 9 American Thund… Six … Eure… Miss… Midwest              2008 3:Newest     48  
10 Anaconda        King… Dosw… Virg… South                1991 2:Recent     50  
# ℹ 625 more rows
# ℹ 10 more variables: MaxHeight <dbl>, Scale <fct>, Type <fct>, Design <fct>,
#   Drop <dbl>, Length <dbl>, Duration <int>, Inversions <fct>,
#   Num.Inversions <int>, Make <chr>
…
